3. Preprocessing • eegSeminaR
…
3.3 Load channel locations

Some steps (e.g., making plots) require R to know the
relative position of channels on the scalp

For some EEG file formats, this is loaded directly with the raw
data, but here we need to electrode locations manually:

eeg <- electrode_locations(eeg, montage = "biosemi64", overwrite = TRUE)

## Electrodes not found: HEOG_left HEOG_right VEOG_lower

eeg$chan_info

## # A tibble: 33 × 9
##    electrode radius theta   phi cart_x cart_y cart_z     x     y
##    <chr>      <dbl> <dbl> <dbl>  <dbl>  <dbl>  <dbl> <dbl> <dbl>
##  1 FP1            1   -92   -72  -26.2   80.8  -2.97 -28.4  87.5
##  2 F3             1   -60   -51  -46.3   57.2  42.5  -37.8  46.6
##  3 F7             1   -92   -36  -68.7   49.9  -2.97 -74.4  54.1
##  4 FC3            1   -50   -28  -57.5   30.6  54.6  -44.2  23.5
##  5 C3             1   -46     0  -61.1    0    59.0  -46     0  
##  6 C5             1   -69     0  -79.4    0    30.5  -69     0  
##  7 P3             1   -60    51  -46.3  -57.2  42.5  -37.8 -46.6
##  8 P7             1   -92    36  -68.7  -49.9  -2.97 -74.4 -54.1
##  9 P9             1  -115    36  -62.3  -45.3 -35.9  -93.0 -67.6
## 10 PO7            1   -92    54  -49.9  -68.7  -2.97 -54.1 -74.4
## # … with 23 more rows
…
n170_events <- c(1:80)
epo <- epoch_data(eeg_downs, n170_events, time_lim = c(-0.2, 0.8))

## Adjusting output limits to match sampling rate.

## Output limits:  -0.19921875 0.80078125

## No baseline removal performed.

## Creating 160 epochs.

epo$epochs

## # A tibble: 160 × 4
##    epoch participant_id        recording             event_type
##    <dbl> <chr>                 <chr>                      <dbl>
##  1     1 sub-001_task-N170_eeg sub-001_task-N170_eeg         79
##  2     2 sub-001_task-N170_eeg sub-001_task-N170_eeg         73
##  3     3 sub-001_task-N170_eeg sub-001_task-N170_eeg         75
##  4     4 sub-001_task-N170_eeg sub-001_task-N170_eeg         17
##  5     5 sub-001_task-N170_eeg sub-001_task-N170_eeg         32
##  6     6 sub-001_task-N170_eeg sub-001_task-N170_eeg          6
##  7     7 sub-001_task-N170_eeg sub-001_task-N170_eeg         59
##  8     8 sub-001_task-N170_eeg sub-001_task-N170_eeg         56
##  9     9 sub-001_task-N170_eeg sub-001_task-N170_eeg         33
## 10    10 sub-001_task-N170_eeg sub-001_task-N170_eeg         15
## # … with 150 more rows

epo$epochs$condition <- ifelse(epo$epochs$event_type <= 40, "face", "car")
epo$epochs$condition <- factor(epo$epochs$condition, levels = c("face", "car"))
epo$epochs

## # A tibble: 160 × 5
##    epoch participant_id        recording             event_type condition
##    <dbl> <chr>                 <chr>                      <dbl> <fct>    
##  1     1 sub-001_task-N170_eeg sub-001_task-N170_eeg         79 car      
##  2     2 sub-001_task-N170_eeg sub-001_task-N170_eeg         73 car      
##  3     3 sub-001_task-N170_eeg sub-001_task-N170_eeg         75 car      
##  4     4 sub-001_task-N170_eeg sub-001_task-N170_eeg         17 face     
##  5     5 sub-001_task-N170_eeg sub-001_task-N170_eeg         32 face     
##  6     6 sub-001_task-N170_eeg sub-001_task-N170_eeg          6 face     
##  7     7 sub-001_task-N170_eeg sub-001_task-N170_eeg         59 car      
##  8     8 sub-001_task-N170_eeg sub-001_task-N170_eeg         56 car      
##  9     9 sub-001_task-N170_eeg sub-001_task-N170_eeg         33 face     
## 10    10 sub-001_task-N170_eeg sub-001_task-N170_eeg         15 face     
## # … with 150 more rows
…
