3. Preprocessing • eegSeminaR
…
For some steps (e.g., making topographic plots) we need to know
the relative positions of electrodes on the
scalp

Sometimes included in the raw data, but here we need to use a
separate function5

dat_raw <- electrode_locations(dat_raw, montage = "biosemi64", overwrite = TRUE)

## Electrodes not found: HEOG_left HEOG_right VEOG_lower

dat_raw$chan_info

## # A tibble: 33 × 9
##    electrode radius theta   phi cart_x cart_y cart_z     x     y
##    <chr>      <dbl> <dbl> <dbl>  <dbl>  <dbl>  <dbl> <dbl> <dbl>
##  1 FP1            1   -92   -72  -26.2   80.8  -2.97 -28.4  87.5
##  2 F3             1   -60   -51  -46.3   57.2  42.5  -37.8  46.6
##  3 F7             1   -92   -36  -68.7   49.9  -2.97 -74.4  54.1
##  4 FC3            1   -50   -28  -57.5   30.6  54.6  -44.2  23.5
##  5 C3             1   -46     0  -61.1    0    59.0  -46     0  
##  6 C5             1   -69     0  -79.4    0    30.5  -69     0  
##  7 P3             1   -60    51  -46.3  -57.2  42.5  -37.8 -46.6
##  8 P7             1   -92    36  -68.7  -49.9  -2.97 -74.4 -54.1
##  9 P9             1  -115    36  -62.3  -45.3 -35.9  -93.0 -67.6
## 10 PO7            1   -92    54  -49.9  -68.7  -2.97 -54.1 -74.4
## # … with 23 more rows
…
